RIMS/newTD.vcd
$date
	02/10/25 13:31:02
$end
$version
	RIMS 2.9
$end
$timescale
	1 ms
$end
$scope module RIMS $end
$var wire 1 *TMR TIMER_ISR $end
$var wire 1 *A0 A0 $end
$var wire 1 *A1 A1 $end
$var wire 1 *A2 A2 $end
$var wire 1 *A3 A3 $end
$var wire 1 *A4 A4 $end
$var wire 1 *A5 A5 $end
$var wire 1 *A6 A6 $end
$var wire 1 *A7 A7 $end
$var wire 1 *B0 B0 $end
$var wire 1 *B1 B1 $end
$var wire 1 *B2 B2 $end
$var wire 1 *B3 B3 $end
$var wire 1 *B4 B4 $end
$var wire 1 *B5 B5 $end
$var wire 1 *B6 B6 $end
$var wire 1 *B7 B7 $end
$upscope $end
$enddefinitions $end

#0
$dumpvars
b0 *TMR
b0 *A0
b0 *A1
b0 *A2
b0 *A3
b0 *A4
b0 *A5
b0 *A6
b0 *A7
b0 *B0
b0 *B1
b0 *B2
b0 *B3
b0 *B4
b0 *B5
b0 *B6
b0 *B7
$end
#5
b0 *B0
#118
b0 *B0
#232
b0 *B0
#346
b0 *B0
#460
b0 *B0
#574
b0 *B0
#687
b0 *B0
#801
b0 *B0
#915
b0 *B0
#1029
b0 *B0
#1143
b0 *B0
#1256
b0 *B0
#1370
b0 *B0
#1484
b0 *B0
#1598
b0 *B0
#1712
b0 *B0
#1825
b0 *B0
#1939
b0 *B0
#2053
b0 *B0
#2167
b0 *B0
#2200
b0 *A2
#2200
b0 *A2
#2281
b1 *B0
#2411
b1 *B0
#2542
b1 *B0
#2673
b1 *B0
#2803
b1 *B0
#2934
b1 *B0
#3064
b1 *B0
#3195
b1 *B0
#3326
b1 *B0
#3456
b1 *B0
#3587
b1 *B0
#3717
b1 *B0
#3848
b1 *B0
#3979
b1 *B0
#4109
b1 *B0
#4240
b1 *B0
#4370
b1 *B0
#4501
b1 *B0
#4632
b1 *B0
#4762
b1 *B0
#5
b0 *B0
#118
b0 *B0
#232
b0 *B0
#346
b0 *B0
#460
b0 *B0
#574
b0 *B0
#687
b0 *B0
#801
b0 *B0
#915
b0 *B0
#1029
b0 *B0
#1143
b0 *B0
#1256
b0 *B0
#1370
b0 *B0
#1484
b0 *B0
#1598
b0 *B0
#1712
b0 *B0
#1825
b0 *B0
#1939
b0 *B0
#2053
b0 *B0
#2167
b0 *B0
#2200
b0 *A2
#2200
b0 *A2
#2281
b1 *B0
#2411
b1 *B0
#2542
b1 *B0
#2673
b1 *B0
#2803
b1 *B0
#2934
b1 *B0
#3064
b1 *B0
#3195
b1 *B0
#3326
b1 *B0
#3456
b1 *B0
#3587
b1 *B0
#3717
b1 *B0
#3848
b1 *B0
#3979
b1 *B0
#4109
b1 *B0
#4240
b1 *B0
#4370
b1 *B0
#4501
b1 *B0
#4632
b1 *B0
#4762
b1 *B0
